<svg width="24" height="24" viewBox="0 0 24 24" fill="none" xmlns="http://www.w3.org/2000/svg">
<path d="M19 6.45818L17.5418 5L12 10.5419L6.45818 5L5 6.45818L10.5418 12L5 17.5419L6.45818 19L12 13.4582L17.5418 19L19 17.5419L13.4582 12L19 6.45818Z" fill="#022F6F"/>
</svg>
